set hive.execution.engine=spark;
INSERT INTO sc_history PARTITION(date="20171231")
SELECT
CENTRO_REG ,
DESC_REG ,
SUCURSAL ,
DESC_SUC ,
SUBRODUCTO ,
DESC_SUBPR ,
COD_SER ,
NUM_CTA ,
DIG ,
CTA_CHEQ ,
NOMBRE_CLI ,
BUC ,
RFC ,
HOMOCLAVE ,
CVE_MONEDA ,
DESC_MON ,
SISTEMA_OR ,
CTA_ORIGEN ,
PLAZO ,
SECTOR ,
SECTOR1 ,
SECTOR2 ,
STATUS ,
CVE_FOBA ,
COD_AMORT ,
ETAPA ,
FECHA_ING ,
FECHA_VTO ,
FECHA_TRAS ,
FECHA_ADAN ,
FECHA_ADIN ,
NUMERO_ADE ,
TASA_BANCO ,
TASA_BASE ,
PUNTOS_ADI ,
PROG_DESC ,
PORCENTAJE ,
IND_JURID ,
CVE_VIG_VD ,
CNOEXIGP ,
CNOEXIGA ,
CEXIGP ,
CEXIGA ,
INTEXIGP ,
INTEXIGA ,
INTNOEXIGP ,
INTNOEXIGA ,
CRRNOEXIP ,
CRRNOEXIA ,
CRREXIGP ,
CRREXIGA ,
INT_EXIPPP ,
INT_EXIPPA ,
INT_EXIRP ,
INT_EXIRA ,
INTMORTASN ,
INTMORCOP ,
IVA_INT ,
IVA_MOR ,
GTOS_JUIC ,
SDO_SEGURO ,
SDO_EROGA ,
SDO_DIFERI ,
FECHA_OPER ,
SEGMENTO ,
CVECONHAVI ,
FACTOR_INT ,
FECHA_REVT ,
P_CAMB_INT ,
F_PROX_LIQ ,
F_PROX_AMO ,
CVE_COBRAN ,
CVE_FONDO ,
CVE_PROGRA ,
CTA_FONDO ,
SDOINTNOEX ,
TASARECA ,
TASABCOFON ,
TPO_CREDI ,
SDO_REFINA ,
LIBRE ,
PER_CAP ,
PER_INT ,
COM_BCO ,
COM_FOVI ,
IDENTIFICA ,
INTNOEXIRP ,
INTNOEXIRA ,
NUM_CRED ,
CTA1301 ,
CTA1302 ,
CTA1305 ,
CTA1307 ,
CTA1308 ,
CTA1310 ,
CTA1311 ,
CTA1312 ,
CTA1314 ,
CTA1316 ,
CTA1317 ,
CTA1319 ,
CTA1320 ,
CTA1322 ,
CTA1323 ,
CTA1326 ,
CTA1330 ,
CTA1331 ,
CTA1332 ,
CTA1335 ,
CTA1336 ,
CTA1337 ,
CTA1338 ,
CTA1340 ,
CTA1341 ,
CTA1350 ,
CTA1351 ,
CTA1352 ,
CTA1353 ,
CTA1354 ,
CTA1355 ,
CTA1356 ,
CTA1357 ,
CTA1360 ,
CTA1362 ,
CTA1365 ,
CTA1367 ,
CTA1368 ,
CTA1370 ,
CTA1371 ,
CTA1372 ,
CTA1374 ,
CTA1375 ,
CTA3102 ,
CTA3115 ,
CTA6105 ,
CAP_VIG ,
REDESCUENT ,
INT_VIG ,
CAP_VDO ,
INT_VDO ,
TOTALCBCO ,
TOTALSC ,
DIFERENCIA ,
CAP_VIGMN ,
REDES_MN ,
INT_VIGMN ,
CAP_VDOMN ,
INT_VDOMN ,
TOTAL_MN ,
CVE_FIDEI ,
TIPO ,
T_CREDITO ,
PERLA ,
CASTIGO ,
MONTO_CURS ,
T_COBRO ,
IND_RECOMP ,
TPO_RECONP ,
APOY_INFO ,
EST_CTAVIN ,
FEC_I_APLC ,
FEC_F_APLC ,
IVA_ORDEN ,
VALUACION ,
VAL_ORIG
FROM SC_RAW;